…
    ##                  name       mle     cilow    cihigh
    ## wall...1        Other 0.6328793 0.4133193 0.9690721
    ## wall...2       Lambda 0.6219978 0.3848107 1.0053808
    ## wall...3      Omicron 0.5465489 0.3414246 0.8749096
    ## wall...4 Co-Infection 0.5791368 0.4262611 0.7868405

``` r
var
```

    ## # A tibble: 25 × 5
    ##    gene_name                           Other Lambda Omicron `Co-Infection`
    ##    <fct>                               <dbl>  <dbl>   <dbl>          <dbl>
    ##  1 ORF1ab:RNA-dependent-RNA-polymerase 0      0       0              0.193
    ##  2 ORF1ab:nsp3                         0.539  0.355   0.176          0.459
    ##  3 M                                   0      0       0              0.204
    ##  4 ORF1ab:nsp4                         0.198  0       0.444          0.187
    ##  5 ORF1ab:helicase                     0.317  0.352   0.363          0.299
    ##  6 ORF1ab:leader-protein               0      0.541   1.63           1.12 
    ##  7 N                                   1.84   1.37    2.18           1.03 
    ##  8 ORF1ab:nsp2                         0.499  0       0              0.350
    ##  9 S                                   1.10   1.27    1.17           1.53 
    ## 10 ORF1ab:endoRNAse                    0.314  0.694   0              0.271
    ## # ℹ 15 more rows
…
